…
We can also visualize the performance profile of the models across the
tuning parameters.

``` r
students_rs %>% 
  collect_metrics()
```

    ## # A tibble: 22 x 9
    ##    wflow_id         .config preproc model .metric .estimator  mean     n std_err
    ##    <chr>            <chr>   <chr>   <chr> <chr>   <chr>      <dbl> <int>   <dbl>
    ##  1 recipe_Multinom~ Prepro~ recipe  mult~ accura~ multiclass 0.711    10 0.00815
    ##  2 recipe_Multinom~ Prepro~ recipe  mult~ roc_auc hand_till  0.850    10 0.00464
    ##  3 recipe_Random_f~ Prepro~ recipe  rand~ accura~ multiclass 0.706    10 0.00663
    ##  4 recipe_Random_f~ Prepro~ recipe  rand~ roc_auc hand_till  0.853    10 0.00448
    ##  5 recipe_Random_f~ Prepro~ recipe  rand~ accura~ multiclass 0.704    10 0.00732
    ##  6 recipe_Random_f~ Prepro~ recipe  rand~ roc_auc hand_till  0.854    10 0.00437
    ##  7 recipe_Random_f~ Prepro~ recipe  rand~ accura~ multiclass 0.700    10 0.00671
    ##  8 recipe_Random_f~ Prepro~ recipe  rand~ roc_auc hand_till  0.852    10 0.00451
    ##  9 recipe_Random_f~ Prepro~ recipe  rand~ accura~ multiclass 0.707    10 0.00691
    ## 10 recipe_Random_f~ Prepro~ recipe  rand~ roc_auc hand_till  0.857    10 0.00382
    ## # ... with 12 more rows

We can also check for the best model by ranking the models by the
overall accuracy rate, by the area under the ROC curve or by a quick
visualization.

``` r
students_rs %>% 
  rank_results(rank_metric = 'roc_auc')
```

    ## # A tibble: 22 x 9
    ##    wflow_id         .config .metric  mean std_err     n preprocessor model  rank
    ##    <chr>            <chr>   <chr>   <dbl>   <dbl> <int> <chr>        <chr> <int>
    ##  1 recipe_Random_f~ Prepro~ accura~ 0.707 0.00691    10 recipe       rand~     1
    ##  2 recipe_Random_f~ Prepro~ roc_auc 0.857 0.00382    10 recipe       rand~     1
    ##  3 recipe_Random_f~ Prepro~ accura~ 0.704 0.00732    10 recipe       rand~     2
    ##  4 recipe_Random_f~ Prepro~ roc_auc 0.854 0.00437    10 recipe       rand~     2
    ##  5 recipe_Random_f~ Prepro~ accura~ 0.706 0.00663    10 recipe       rand~     3
    ##  6 recipe_Random_f~ Prepro~ roc_auc 0.853 0.00448    10 recipe       rand~     3
    ##  7 recipe_Random_f~ Prepro~ accura~ 0.700 0.00671    10 recipe       rand~     4
    ##  8 recipe_Random_f~ Prepro~ roc_auc 0.852 0.00451    10 recipe       rand~     4
    ##  9 recipe_Random_f~ Prepro~ accura~ 0.707 0.00815    10 recipe       rand~     5
    ## 10 recipe_Random_f~ Prepro~ roc_auc 0.852 0.00474    10 recipe       rand~     5
    ## # ... with 12 more rows
…
